<svg xmlns="http://www.w3.org/2000/svg" width="323" height="146" viewBox="0 0 323 146">
    <g fill="none" fill-rule="evenodd">
        <g>
            <g>
                <path fill="#343FB6" d="M0 0H323V146H0z" transform="translate(-29) translate(29)"/>
                <g opacity=".5">
                    <g>
                        <path fill="#5B6AC0" d="M109.998 0L110 3.822c-2.067 23.982-23.795 43.123-51.017 44.945l-4.339-.002-8.14-19.362c1.009 0 10.147-.04 11.133-.117C74.667 27.953 88.019 15.35 88.019 0H110z" transform="translate(-29) translate(29)"/>
                        <path fill="#3F51B5" d="M55.447 48.767V0H0c0 26.933 24.825 48.767 55.447 48.767z" transform="translate(-29) translate(29) rotate(180 27.724 24.383)"/>
                        <path fill="#2B387E" d="M55.447 97.534V48.767C24.825 48.767 0 70.6 0 97.534h55.447z" transform="translate(-29) translate(29) rotate(180 27.724 73.15)"/>
                    </g>
                    <g>
                        <path fill="#3F51B5" d="M42.156-2.663c19.43 0 35.181 15.751 35.181 35.18v5.327h-35.18V-2.663z" transform="translate(-29) translate(29) matrix(-1 0 0 1 323 110.82) scale(1 -1) rotate(90 77.337 0)"/>
                        <path fill="#2B387E" d="M2.663-2.663c19.43 0 35.18 15.751 35.18 35.18v5.327H2.664V-2.663z" transform="translate(-29) translate(29) matrix(-1 0 0 1 323 110.82) matrix(0 1 1 0 2.663 -2.663)"/>
                    </g>
                    <g>
                        <path fill="#3F51B5" d="M42.156-2.663c19.43 0 35.181 15.751 35.181 35.18v5.327h-35.18V-2.663z" transform="translate(-29) translate(29) translate(0 110.82) scale(1 -1) rotate(90 77.337 0)"/>
                        <path fill="#2B387E" d="M2.663-2.663c19.43 0 35.18 15.751 35.18 35.18v5.327H2.664V-2.663z" transform="translate(-29) translate(29) translate(0 110.82) matrix(0 1 1 0 2.663 -2.663)"/>
                    </g>
                    <g>
                        <path fill="#5B6AC0" d="M63.494 0l.002 3.822C61.429 27.804 39.7 46.945 12.479 48.767l-4.339-.002L0 29.403c1.009 0 10.147-.04 11.133-.117C28.163 27.953 41.515 15.35 41.515 0h21.98z" transform="translate(-29) translate(29) translate(213) matrix(-1 0 0 1 63.496 0)"/>
                        <path fill="#3F51B5" d="M110 48.767V0H54.553c0 26.933 24.824 48.767 55.447 48.767z" transform="translate(-29) translate(29) translate(213) matrix(1 0 0 -1 0 48.767)"/>
                        <path fill="#2B387E" d="M110 97.534V48.767c-30.623 0-55.447 21.833-55.447 48.767H110z" transform="translate(-29) translate(29) translate(213) matrix(1 0 0 -1 0 146.3)"/>
                    </g>
                </g>
            </g>
        </g>
    </g>
</svg>
