<svg xmlns="http://www.w3.org/2000/svg" width="16" height="15" viewBox="0 0 16 15">
    <g fill="none" fill-rule="evenodd">
        <g fill="#005CB9" fill-rule="nonzero">
            <g>
                <g>
                    <g>
                        <path d="M7.488 14.105c-2.47 0-3.187-1.492-3.187-4.411V5.235c0-2.909.736-4.411 3.199-4.411s3.199 1.49 3.199 4.411v4.47c0 2.908-.736 4.413-3.187 4.413m0 .872c4.071 0 7.488-3.6 7.488-7.49S11.559 0 7.488 0 0 3.598 0 7.488c0 3.89 3.417 7.49 7.488 7.49" transform="translate(-151 -287) translate(32 278) translate(119.5 8) translate(0 1)"/>
                    </g>
                </g>
            </g>
        </g>
    </g>
</svg>
